%YAML 1.1
%TAG !u! tag:unity3d.com,2011:
--- !u!114 &11400000
MonoBehaviour:
  m_ObjectHideFlags: 0
  m_CorrespondingSourceObject: {fileID: 0}
  m_PrefabInstance: {fileID: 0}
  m_PrefabAsset: {fileID: 0}
  m_GameObject: {fileID: 0}
  m_Enabled: 1
  m_EditorHideFlags: 0
  m_Script: {fileID: 11500000, guid: 8b6d9667cbe49074f8cf7af05f889a4a, type: 3}
  m_Name: GunDefaultStatus
  m_EditorClassIdentifier: 
  damageReductionRate: 7.5
  maxDamageReductionRate: 75
  minShockFigure: 150
