%YAML 1.1
%TAG !u! tag:unity3d.com,2011:
--- !u!1 &105187199980579643
GameObject:
  m_ObjectHideFlags: 0
  m_CorrespondingSourceObject: {fileID: 0}
  m_PrefabInstance: {fileID: 0}
  m_PrefabAsset: {fileID: 0}
  serializedVersion: 6
  m_Component:
  - component: {fileID: 7626115099525359207}
  m_Layer: 0
  m_Name: Bip001 L Clavicle
  m_TagString: Untagged
  m_Icon: {fileID: 0}
  m_NavMeshLayer: 0
  m_StaticEditorFlags: 0
  m_IsActive: 1
--- !u!4 &7626115099525359207
Transform:
  m_ObjectHideFlags: 0
  m_CorrespondingSourceObject: {fileID: 0}
  m_PrefabInstance: {fileID: 0}
  m_PrefabAsset: {fileID: 0}
  m_GameObject: {fileID: 105187199980579643}
  serializedVersion: 2
  m_LocalRotation: {x: 0.7071077, y: 0.0002815432, z: -0.70710576, w: 0.000281544}
  m_LocalPosition: {x: -0.08387365, y: -0.0000006151199, z: 0.023102442}
  m_LocalScale: {x: 1, y: 1, z: 1}
  m_ConstrainProportionsScale: 0
  m_Children:
  - {fileID: 5164456738351035121}
  m_Father: {fileID: 4343486295266899006}
  m_LocalEulerAnglesHint: {x: 0, y: 0, z: 0}
--- !u!1 &553894562612471104
GameObject:
  m_ObjectHideFlags: 0
  m_CorrespondingSourceObject: {fileID: 0}
  m_PrefabInstance: {fileID: 0}
  m_PrefabAsset: {fileID: 0}
  serializedVersion: 6
  m_Component:
  - component: {fileID: 3944288702339528499}
  m_Layer: 0
  m_Name: Bip001
  m_TagString: Untagged
  m_Icon: {fileID: 0}
  m_NavMeshLayer: 0
  m_StaticEditorFlags: 0
  m_IsActive: 1
--- !u!4 &3944288702339528499
Transform:
  m_ObjectHideFlags: 0
  m_CorrespondingSourceObject: {fileID: 0}
  m_PrefabInstance: {fileID: 0}
  m_PrefabAsset: {fileID: 0}
  m_GameObject: {fileID: 553894562612471104}
  serializedVersion: 2
  m_LocalRotation: {x: 0.5124669, y: -0.51246625, z: -0.48721427, w: -0.48721495}
  m_LocalPosition: {x: 0.0000000011496017, y: 0.3871936, z: 0.031652585}
  m_LocalScale: {x: 2.54, y: 2.54, z: 2.54}
  m_ConstrainProportionsScale: 0
  m_Children:
  - {fileID: 2719008943544615763}
  m_Father: {fileID: 4201680120323179013}
  m_LocalEulerAnglesHint: {x: 0, y: 0, z: 0}
--- !u!1 &966807290345829815
GameObject:
  m_ObjectHideFlags: 0
  m_CorrespondingSourceObject: {fileID: 0}
  m_PrefabInstance: {fileID: 0}
  m_PrefabAsset: {fileID: 0}
  serializedVersion: 6
  m_Component:
  - component: {fileID: 7778689154834691667}
  m_Layer: 0
  m_Name: Bip001 L Finger0
  m_TagString: Untagged
  m_Icon: {fileID: 0}
  m_NavMeshLayer: 0
  m_StaticEditorFlags: 0
  m_IsActive: 1
--- !u!4 &7778689154834691667
Transform:
  m_ObjectHideFlags: 0
  m_CorrespondingSourceObject: {fileID: 0}
  m_PrefabInstance: {fileID: 0}
  m_PrefabAsset: {fileID: 0}
  m_GameObject: {fileID: 966807290345829815}
  serializedVersion: 2
  m_LocalRotation: {x: -0.00039816092, y: -0.0000000037282564, z: 0.000000007449097, w: 0.99999994}
  m_LocalPosition: {x: -0.027321547, y: -0.000000038146972, z: 0.0000000023841857}
  m_LocalScale: {x: 1, y: 1, z: 1}
  m_ConstrainProportionsScale: 0
  m_Children:
  - {fileID: 7317003357365594892}
  m_Father: {fileID: 8550555696545200624}
  m_LocalEulerAnglesHint: {x: 0, y: 0, z: 0}
--- !u!1 &1011249886729792515
GameObject:
  m_ObjectHideFlags: 0
  m_CorrespondingSourceObject: {fileID: 0}
  m_PrefabInstance: {fileID: 0}
  m_PrefabAsset: {fileID: 0}
  serializedVersion: 6
  m_Component:
  - component: {fileID: 3557628580249066877}
  m_Layer: 0
  m_Name: Bip001 Spine
  m_TagString: Untagged
  m_Icon: {fileID: 0}
  m_NavMeshLayer: 0
  m_StaticEditorFlags: 0
  m_IsActive: 1
--- !u!4 &3557628580249066877
Transform:
  m_ObjectHideFlags: 0
  m_CorrespondingSourceObject: {fileID: 0}
  m_PrefabInstance: {fileID: 0}
  m_PrefabAsset: {fileID: 0}
  m_GameObject: {fileID: 1011249886729792515}
  serializedVersion: 2
  m_LocalRotation: {x: -0.000013813925, y: 0.00000024227083, z: 0.023558311, w: 0.9997225}
  m_LocalPosition: {x: -0.035382774, y: -0.0014814448, z: 0.00000004223637}
  m_LocalScale: {x: 1, y: 1, z: 1}
  m_ConstrainProportionsScale: 0
  m_Children:
  - {fileID: 4343486295266899006}
  m_Father: {fileID: 2719008943544615763}
  m_LocalEulerAnglesHint: {x: 0, y: 0, z: 0}
--- !u!1 &1175802990551804138
GameObject:
  m_ObjectHideFlags: 0
  m_CorrespondingSourceObject: {fileID: 0}
  m_PrefabInstance: {fileID: 0}
  m_PrefabAsset: {fileID: 0}
  serializedVersion: 6
  m_Component:
  - component: {fileID: 1198411759594123525}
  - component: {fileID: 7609596338054779986}
  m_Layer: 0
  m_Name: sticker_head
  m_TagString: Untagged
  m_Icon: {fileID: 0}
  m_NavMeshLayer: 0
  m_StaticEditorFlags: 0
  m_IsActive: 1
--- !u!4 &1198411759594123525
Transform:
  m_ObjectHideFlags: 0
  m_CorrespondingSourceObject: {fileID: 0}
  m_PrefabInstance: {fileID: 0}
  m_PrefabAsset: {fileID: 0}
  m_GameObject: {fileID: 1175802990551804138}
  serializedVersion: 2
  m_LocalRotation: {x: -0.7071068, y: 0, z: -0, w: 0.7071068}
  m_LocalPosition: {x: -0, y: 0, z: 0}
  m_LocalScale: {x: 2.54, y: 2.54, z: 2.54}
  m_ConstrainProportionsScale: 0
  m_Children: []
  m_Father: {fileID: 4201680120323179013}
  m_LocalEulerAnglesHint: {x: 0, y: 0, z: 0}
--- !u!137 &7609596338054779986
SkinnedMeshRenderer:
  m_ObjectHideFlags: 0
  m_CorrespondingSourceObject: {fileID: 0}
  m_PrefabInstance: {fileID: 0}
  m_PrefabAsset: {fileID: 0}
  m_GameObject: {fileID: 1175802990551804138}
  m_Enabled: 1
  m_CastShadows: 1
  m_ReceiveShadows: 1
  m_DynamicOccludee: 1
  m_StaticShadowCaster: 0
  m_MotionVectors: 1
  m_LightProbeUsage: 1
  m_ReflectionProbeUsage: 1
  m_RayTracingMode: 0
  m_RayTraceProcedural: 0
  m_RenderingLayerMask: 1
  m_RendererPriority: 0
  m_Materials:
  - {fileID: 2100000, guid: 43e1c72e8c2928a49854b2564fbbb9d4, type: 2}
  m_StaticBatchInfo:
    firstSubMesh: 0
    subMeshCount: 0
  m_StaticBatchRoot: {fileID: 0}
  m_ProbeAnchor: {fileID: 0}
  m_LightProbeVolumeOverride: {fileID: 0}
  m_ScaleInLightmap: 1
  m_ReceiveGI: 1
  m_PreserveUVs: 0
  m_IgnoreNormalsForChartDetection: 0
  m_ImportantGI: 0
  m_StitchLightmapSeams: 1
  m_SelectedEditorRenderState: 3
  m_MinimumChartSize: 4
  m_AutoUVMaxDistance: 0.5
  m_AutoUVMaxAngle: 89
  m_LightmapParameters: {fileID: 0}
  m_SortingLayerID: 0
  m_SortingLayer: 0
  m_SortingOrder: 0
  serializedVersion: 2
  m_Quality: 0
  m_UpdateWhenOffscreen: 0
  m_SkinnedMotionVectors: 1
  m_Mesh: {fileID: 2766837143356763195, guid: ee84f1870f092604f9e7305af1a2ce35, type: 3}
  m_Bones:
  - {fileID: 1327055055721440539}
  m_BlendShapeWeights: []
  m_RootBone: {fileID: 1327055055721440539}
  m_AABB:
    m_Center: {x: -0.14572379, y: -0.003003858, z: -0.00043714046}
    m_Extent: {x: 0.07766688, y: 0.08184565, z: 0.17591478}
  m_DirtyAABB: 0
--- !u!1 &1721010970276242428
GameObject:
  m_ObjectHideFlags: 0
  m_CorrespondingSourceObject: {fileID: 0}
  m_PrefabInstance: {fileID: 0}
  m_PrefabAsset: {fileID: 0}
  serializedVersion: 6
  m_Component:
  - component: {fileID: 3352360908212826733}
  m_Layer: 0
  m_Name: Bip001 Neck
  m_TagString: Untagged
  m_Icon: {fileID: 0}
  m_NavMeshLayer: 0
  m_StaticEditorFlags: 0
  m_IsActive: 1
--- !u!4 &3352360908212826733
Transform:
  m_ObjectHideFlags: 0
  m_CorrespondingSourceObject: {fileID: 0}
  m_PrefabInstance: {fileID: 0}
  m_PrefabAsset: {fileID: 0}
  m_GameObject: {fileID: 1721010970276242428}
  serializedVersion: 2
  m_LocalRotation: {x: -0.00000039175694, y: -0.0000000095473, z: 0.010657186, w: 0.99994326}
  m_LocalPosition: {x: -0.0831772, y: -0.000041573046, z: -8.2745824e-11}
  m_LocalScale: {x: 1, y: 1, z: 1}
  m_ConstrainProportionsScale: 0
  m_Children:
  - {fileID: 1327055055721440539}
  m_Father: {fileID: 4343486295266899006}
  m_LocalEulerAnglesHint: {x: 0, y: 0, z: 0}
--- !u!1 &1857563479037937557
GameObject:
  m_ObjectHideFlags: 0
  m_CorrespondingSourceObject: {fileID: 0}
  m_PrefabInstance: {fileID: 0}
  m_PrefabAsset: {fileID: 0}
  serializedVersion: 6
  m_Component:
  - component: {fileID: 2990272588308735041}
  - component: {fileID: 1925795806664440972}
  m_Layer: 0
  m_Name: sticker_body
  m_TagString: Untagged
  m_Icon: {fileID: 0}
  m_NavMeshLayer: 0
  m_StaticEditorFlags: 0
  m_IsActive: 1
--- !u!4 &2990272588308735041
Transform:
  m_ObjectHideFlags: 0
  m_CorrespondingSourceObject: {fileID: 0}
  m_PrefabInstance: {fileID: 0}
  m_PrefabAsset: {fileID: 0}
  m_GameObject: {fileID: 1857563479037937557}
  serializedVersion: 2
  m_LocalRotation: {x: -0.7071068, y: 0, z: -0, w: 0.7071068}
  m_LocalPosition: {x: -0, y: 0, z: 0}
  m_LocalScale: {x: 2.54, y: 2.54, z: 2.54}
  m_ConstrainProportionsScale: 0
  m_Children: []
  m_Father: {fileID: 4201680120323179013}
  m_LocalEulerAnglesHint: {x: 0, y: 0, z: 0}
--- !u!137 &1925795806664440972
SkinnedMeshRenderer:
  m_ObjectHideFlags: 0
  m_CorrespondingSourceObject: {fileID: 0}
  m_PrefabInstance: {fileID: 0}
  m_PrefabAsset: {fileID: 0}
  m_GameObject: {fileID: 1857563479037937557}
  m_Enabled: 1
  m_CastShadows: 1
  m_ReceiveShadows: 1
  m_DynamicOccludee: 1
  m_StaticShadowCaster: 0
  m_MotionVectors: 1
  m_LightProbeUsage: 1
  m_ReflectionProbeUsage: 1
  m_RayTracingMode: 0
  m_RayTraceProcedural: 0
  m_RenderingLayerMask: 1
  m_RendererPriority: 0
  m_Materials:
  - {fileID: 2100000, guid: 4d9afcd50b05c474aaba1286205961a1, type: 2}
  m_StaticBatchInfo:
    firstSubMesh: 0
    subMeshCount: 0
  m_StaticBatchRoot: {fileID: 0}
  m_ProbeAnchor: {fileID: 0}
  m_LightProbeVolumeOverride: {fileID: 0}
  m_ScaleInLightmap: 1
  m_ReceiveGI: 1
  m_PreserveUVs: 0
  m_IgnoreNormalsForChartDetection: 0
  m_ImportantGI: 0
  m_StitchLightmapSeams: 1
  m_SelectedEditorRenderState: 3
  m_MinimumChartSize: 4
  m_AutoUVMaxDistance: 0.5
  m_AutoUVMaxAngle: 89
  m_LightmapParameters: {fileID: 0}
  m_SortingLayerID: 0
  m_SortingLayer: 0
  m_SortingOrder: 0
  serializedVersion: 2
  m_Quality: 0
  m_UpdateWhenOffscreen: 0
  m_SkinnedMotionVectors: 1
  m_Mesh: {fileID: 4826218833023810153, guid: ee84f1870f092604f9e7305af1a2ce35, type: 3}
  m_Bones:
  - {fileID: 3557628580249066877}
  - {fileID: 4343486295266899006}
  - {fileID: 1327055055721440539}
  - {fileID: 2719008943544615763}
  - {fileID: 1311128845495514684}
  - {fileID: 2568966946853540762}
  m_BlendShapeWeights: []
  m_RootBone: {fileID: 2719008943544615763}
  m_AABB:
    m_Center: {x: -0.124825105, y: 0.09457801, z: 0.0000013485551}
    m_Extent: {x: 0.05181013, y: 0.02301659, z: 0.06938258}
  m_DirtyAABB: 0
--- !u!1 &1884970320868385440
GameObject:
  m_ObjectHideFlags: 0
  m_CorrespondingSourceObject: {fileID: 0}
  m_PrefabInstance: {fileID: 0}
  m_PrefabAsset: {fileID: 0}
  serializedVersion: 6
  m_Component:
  - component: {fileID: 2528488997718314482}
  m_Layer: 0
  m_Name: Bip001 R Hand
  m_TagString: Untagged
  m_Icon: {fileID: 0}
  m_NavMeshLayer: 0
  m_StaticEditorFlags: 0
  m_IsActive: 1
--- !u!4 &2528488997718314482
Transform:
  m_ObjectHideFlags: 0
  m_CorrespondingSourceObject: {fileID: 0}
  m_PrefabInstance: {fileID: 0}
  m_PrefabAsset: {fileID: 0}
  m_GameObject: {fileID: 1884970320868385440}
  serializedVersion: 2
  m_LocalRotation: {x: 0.7068252, y: 0, z: -0, w: 0.7073882}
  m_LocalPosition: {x: -0.06358593, y: -0.0000000023841857, z: -0.000000038146972}
  m_LocalScale: {x: 1, y: 1, z: 1}
  m_ConstrainProportionsScale: 0
  m_Children:
  - {fileID: 5304700452918897779}
  m_Father: {fileID: 6920821623771714859}
  m_LocalEulerAnglesHint: {x: 0, y: 0, z: 0}
--- !u!1 &1968196890948735851
GameObject:
  m_ObjectHideFlags: 0
  m_CorrespondingSourceObject: {fileID: 0}
  m_PrefabInstance: {fileID: 0}
  m_PrefabAsset: {fileID: 0}
  serializedVersion: 6
  m_Component:
  - component: {fileID: 7216816398624014807}
  m_Layer: 0
  m_Name: Bip001 R Clavicle
  m_TagString: Untagged
  m_Icon: {fileID: 0}
  m_NavMeshLayer: 0
  m_StaticEditorFlags: 0
  m_IsActive: 1
--- !u!4 &7216816398624014807
Transform:
  m_ObjectHideFlags: 0
  m_CorrespondingSourceObject: {fileID: 0}
  m_PrefabInstance: {fileID: 0}
  m_PrefabAsset: {fileID: 0}
  m_GameObject: {fileID: 1968196890948735851}
  serializedVersion: 2
  m_LocalRotation: {x: 0.7071077, y: 0.0002815432, z: 0.70710576, w: -0.000281544}
  m_LocalPosition: {x: -0.08387365, y: -0.0000004887581, z: -0.023102447}
  m_LocalScale: {x: 1, y: 1, z: 1}
  m_ConstrainProportionsScale: 0
  m_Children:
  - {fileID: 5020194067118896734}
  m_Father: {fileID: 4343486295266899006}
  m_LocalEulerAnglesHint: {x: 0, y: 0, z: 0}
--- !u!1 &2408361670191190281
GameObject:
  m_ObjectHideFlags: 0
  m_CorrespondingSourceObject: {fileID: 0}
  m_PrefabInstance: {fileID: 0}
  m_PrefabAsset: {fileID: 0}
  serializedVersion: 6
  m_Component:
  - component: {fileID: 1327055055721440539}
  m_Layer: 0
  m_Name: Bip001 Head
  m_TagString: Untagged
  m_Icon: {fileID: 0}
  m_NavMeshLayer: 0
  m_StaticEditorFlags: 0
  m_IsActive: 1
--- !u!4 &1327055055721440539
Transform:
  m_ObjectHideFlags: 0
  m_CorrespondingSourceObject: {fileID: 0}
  m_PrefabInstance: {fileID: 0}
  m_PrefabAsset: {fileID: 0}
  m_GameObject: {fileID: 2408361670191190281}
  serializedVersion: 2
  m_LocalRotation: {x: 0.0000016097889, y: 0.00000007070344, z: -0.04425442, w: 0.99902034}
  m_LocalPosition: {x: -0.048562925, y: -0.010282869, z: -0.000000022435987}
  m_LocalScale: {x: 1, y: 1, z: 1}
  m_ConstrainProportionsScale: 0
  m_Children:
  - {fileID: 6022836497322569686}
  m_Father: {fileID: 3352360908212826733}
  m_LocalEulerAnglesHint: {x: 0, y: 0, z: 0}
--- !u!1 &3119465268121499487
GameObject:
  m_ObjectHideFlags: 0
  m_CorrespondingSourceObject: {fileID: 0}
  m_PrefabInstance: {fileID: 0}
  m_PrefabAsset: {fileID: 0}
  serializedVersion: 6
  m_Component:
  - component: {fileID: 7641149359507508278}
  m_Layer: 0
  m_Name: Bip001 R Toe0Nub
  m_TagString: Untagged
  m_Icon: {fileID: 0}
  m_NavMeshLayer: 0
  m_StaticEditorFlags: 0
  m_IsActive: 1
--- !u!4 &7641149359507508278
Transform:
  m_ObjectHideFlags: 0
  m_CorrespondingSourceObject: {fileID: 0}
  m_PrefabInstance: {fileID: 0}
  m_PrefabAsset: {fileID: 0}
  m_GameObject: {fileID: 3119465268121499487}
  serializedVersion: 2
  m_LocalRotation: {x: -2.5267885e-29, y: 1.1379644e-13, z: 2.220446e-16, w: 1}
  m_LocalPosition: {x: -0.003671789, y: 3.7252902e-11, z: 0}
  m_LocalScale: {x: 1, y: 1, z: 1}
  m_ConstrainProportionsScale: 0
  m_Children: []
  m_Father: {fileID: 4874807567852685899}
  m_LocalEulerAnglesHint: {x: 0, y: 0, z: 0}
--- !u!1 &3469929067106787258
GameObject:
  m_ObjectHideFlags: 0
  m_CorrespondingSourceObject: {fileID: 0}
  m_PrefabInstance: {fileID: 0}
  m_PrefabAsset: {fileID: 0}
  serializedVersion: 6
  m_Component:
  - component: {fileID: 1311128845495514684}
  m_Layer: 0
  m_Name: Bip001 L Thigh
  m_TagString: Untagged
  m_Icon: {fileID: 0}
  m_NavMeshLayer: 0
  m_StaticEditorFlags: 0
  m_IsActive: 1
--- !u!4 &1311128845495514684
Transform:
  m_ObjectHideFlags: 0
  m_CorrespondingSourceObject: {fileID: 0}
  m_PrefabInstance: {fileID: 0}
  m_PrefabAsset: {fileID: 0}
  m_GameObject: {fileID: 3469929067106787258}
  serializedVersion: 2
  m_LocalRotation: {x: 0.03133148, y: 0.999396, z: -0.0030327279, w: -0.014725308}
  m_LocalPosition: {x: 0.0000000667572, y: 0.00000007271767, z: 0.04760332}
  m_LocalScale: {x: 1, y: 1, z: 1}
  m_ConstrainProportionsScale: 0
  m_Children:
  - {fileID: 451963770905770139}
  m_Father: {fileID: 2719008943544615763}
  m_LocalEulerAnglesHint: {x: 0, y: 0, z: 0}
--- !u!1 &3532103461105522879
GameObject:
  m_ObjectHideFlags: 0
  m_CorrespondingSourceObject: {fileID: 0}
  m_PrefabInstance: {fileID: 0}
  m_PrefabAsset: {fileID: 0}
  serializedVersion: 6
  m_Component:
  - component: {fileID: 4201680120323179013}
  - component: {fileID: 4451215266501767581}
  - component: {fileID: -7654659678011069531}
  m_Layer: 0
  m_Name: Model_V2
  m_TagString: Untagged
  m_Icon: {fileID: 0}
  m_NavMeshLayer: 0
  m_StaticEditorFlags: 0
  m_IsActive: 1
--- !u!4 &4201680120323179013
Transform:
  m_ObjectHideFlags: 0
  m_CorrespondingSourceObject: {fileID: 0}
  m_PrefabInstance: {fileID: 0}
  m_PrefabAsset: {fileID: 0}
  m_GameObject: {fileID: 3532103461105522879}
  serializedVersion: 2
  m_LocalRotation: {x: 0, y: 0, z: 0, w: 1}
  m_LocalPosition: {x: 0, y: 0, z: 0}
  m_LocalScale: {x: 1, y: 1, z: 1}
  m_ConstrainProportionsScale: 0
  m_Children:
  - {fileID: 3302980427091927904}
  - {fileID: 1712627939524545260}
  - {fileID: 3944288702339528499}
  - {fileID: 3218419876591818865}
  - {fileID: 2990272588308735041}
  - {fileID: 1198411759594123525}
  m_Father: {fileID: 0}
  m_LocalEulerAnglesHint: {x: 0, y: 0, z: 0}
--- !u!95 &4451215266501767581
Animator:
  serializedVersion: 5
  m_ObjectHideFlags: 0
  m_CorrespondingSourceObject: {fileID: 0}
  m_PrefabInstance: {fileID: 0}
  m_PrefabAsset: {fileID: 0}
  m_GameObject: {fileID: 3532103461105522879}
  m_Enabled: 1
  m_Avatar: {fileID: 0}
  m_Controller: {fileID: 0}
  m_CullingMode: 0
  m_UpdateMode: 0
  m_ApplyRootMotion: 0
  m_LinearVelocityBlending: 0
  m_StabilizeFeet: 0
  m_WarningMessage: 
  m_HasTransformHierarchy: 1
  m_AllowConstantClipSamplingOptimization: 1
  m_KeepAnimatorStateOnDisable: 0
  m_WriteDefaultValuesOnDisable: 0
--- !u!114 &-7654659678011069531
MonoBehaviour:
  m_ObjectHideFlags: 0
  m_CorrespondingSourceObject: {fileID: 0}
  m_PrefabInstance: {fileID: 0}
  m_PrefabAsset: {fileID: 0}
  m_GameObject: {fileID: 3532103461105522879}
  m_Enabled: 1
  m_EditorHideFlags: 0
  m_Script: {fileID: 11500000, guid: 6cd4f6285e6834547acf980b920b9428, type: 3}
  m_Name: 
  m_EditorClassIdentifier: 
  HandlePos_Left:
  - {fileID: 8550555696545200624}
  - {fileID: 3407252864429330028}
  HandlePos_Right:
  - {fileID: 2528488997718314482}
  - {fileID: 6920821623771714859}
  modelPos: {fileID: 3352360908212826733}
  head: {fileID: 1327055055721440539}
  body: {fileID: 4343486295266899006}
  backPack: {fileID: 1712627939524545260}
--- !u!1 &3715340476569768353
GameObject:
  m_ObjectHideFlags: 0
  m_CorrespondingSourceObject: {fileID: 0}
  m_PrefabInstance: {fileID: 0}
  m_PrefabAsset: {fileID: 0}
  serializedVersion: 6
  m_Component:
  - component: {fileID: 3302980427091927904}
  - component: {fileID: 2841239753787282180}
  m_Layer: 0
  m_Name: ASTRONAUT_body
  m_TagString: Untagged
  m_Icon: {fileID: 0}
  m_NavMeshLayer: 0
  m_StaticEditorFlags: 0
  m_IsActive: 1
--- !u!4 &3302980427091927904
Transform:
  m_ObjectHideFlags: 0
  m_CorrespondingSourceObject: {fileID: 0}
  m_PrefabInstance: {fileID: 0}
  m_PrefabAsset: {fileID: 0}
  m_GameObject: {fileID: 3715340476569768353}
  serializedVersion: 2
  m_LocalRotation: {x: -0.7071068, y: 0, z: -0, w: 0.7071068}
  m_LocalPosition: {x: -0, y: 0, z: 0}
  m_LocalScale: {x: 2.54, y: 2.54, z: 2.54}
  m_ConstrainProportionsScale: 0
  m_Children: []
  m_Father: {fileID: 4201680120323179013}
  m_LocalEulerAnglesHint: {x: 0, y: 0, z: 0}
--- !u!137 &2841239753787282180
SkinnedMeshRenderer:
  m_ObjectHideFlags: 0
  m_CorrespondingSourceObject: {fileID: 0}
  m_PrefabInstance: {fileID: 0}
  m_PrefabAsset: {fileID: 0}
  m_GameObject: {fileID: 3715340476569768353}
  m_Enabled: 1
  m_CastShadows: 1
  m_ReceiveShadows: 1
  m_DynamicOccludee: 1
  m_StaticShadowCaster: 0
  m_MotionVectors: 1
  m_LightProbeUsage: 1
  m_ReflectionProbeUsage: 1
  m_RayTracingMode: 0
  m_RayTraceProcedural: 0
  m_RenderingLayerMask: 1
  m_RendererPriority: 0
  m_Materials:
  - {fileID: 2100000, guid: 759a89936aea9674ea699bc7be5561df, type: 2}
  - {fileID: 2100000, guid: b7700723002f4db4082da669df8d5283, type: 2}
  - {fileID: 2100000, guid: 4a9d2ed3e511ede488001e6406f116c5, type: 2}
  m_StaticBatchInfo:
    firstSubMesh: 0
    subMeshCount: 0
  m_StaticBatchRoot: {fileID: 0}
  m_ProbeAnchor: {fileID: 0}
  m_LightProbeVolumeOverride: {fileID: 0}
  m_ScaleInLightmap: 1
  m_ReceiveGI: 1
  m_PreserveUVs: 0
  m_IgnoreNormalsForChartDetection: 0
  m_ImportantGI: 0
  m_StitchLightmapSeams: 1
  m_SelectedEditorRenderState: 3
  m_MinimumChartSize: 4
  m_AutoUVMaxDistance: 0.5
  m_AutoUVMaxAngle: 89
  m_LightmapParameters: {fileID: 0}
  m_SortingLayerID: 0
  m_SortingLayer: 0
  m_SortingOrder: 0
  serializedVersion: 2
  m_Quality: 0
  m_UpdateWhenOffscreen: 0
  m_SkinnedMotionVectors: 1
  m_Mesh: {fileID: 490112793180148897, guid: ee84f1870f092604f9e7305af1a2ce35, type: 3}
  m_Bones:
  - {fileID: 3557628580249066877}
  - {fileID: 4343486295266899006}
  - {fileID: 1327055055721440539}
  - {fileID: 7626115099525359207}
  - {fileID: 5164456738351035121}
  - {fileID: 7216816398624014807}
  - {fileID: 1311128845495514684}
  - {fileID: 3407252864429330028}
  - {fileID: 451963770905770139}
  - {fileID: 2719008943544615763}
  - {fileID: 6443137383512591955}
  - {fileID: 3944288702339528499}
  - {fileID: 2568966946853540762}
  - {fileID: 5853085263055239576}
  - {fileID: 8550555696545200624}
  - {fileID: 3352360908212826733}
  - {fileID: 5020194067118896734}
  - {fileID: 6920821623771714859}
  - {fileID: 6258933512840311204}
  - {fileID: 2528488997718314482}
  m_BlendShapeWeights: []
  m_RootBone: {fileID: 3944288702339528499}
  m_AABB:
    m_Center: {x: -0.015753329, y: 0.000003926456, z: 0.18025953}
    m_Extent: {x: 0.19276565, y: 0.24488807, z: 0.3512507}
  m_DirtyAABB: 0
--- !u!1 &3806871457051287040
GameObject:
  m_ObjectHideFlags: 0
  m_CorrespondingSourceObject: {fileID: 0}
  m_PrefabInstance: {fileID: 0}
  m_PrefabAsset: {fileID: 0}
  serializedVersion: 6
  m_Component:
  - component: {fileID: 6039715094399115006}
  m_Layer: 0
  m_Name: Bip001 L Toe0
  m_TagString: Untagged
  m_Icon: {fileID: 0}
  m_NavMeshLayer: 0
  m_StaticEditorFlags: 0
  m_IsActive: 1
--- !u!4 &6039715094399115006
Transform:
  m_ObjectHideFlags: 0
  m_CorrespondingSourceObject: {fileID: 0}
  m_PrefabInstance: {fileID: 0}
  m_PrefabAsset: {fileID: 0}
  m_GameObject: {fileID: 3806871457051287040}
  serializedVersion: 2
  m_LocalRotation: {x: -0.000000015454313, y: 0.000000015454308, z: -0.7071068, w: 0.7071068}
  m_LocalPosition: {x: -0.028150387, y: 0.03622834, z: 0}
  m_LocalScale: {x: 1, y: 1, z: 1}
  m_ConstrainProportionsScale: 0
  m_Children:
  - {fileID: 7452088260668943515}
  m_Father: {fileID: 6443137383512591955}
  m_LocalEulerAnglesHint: {x: 0, y: 0, z: 0}
--- !u!1 &3994252239947014614
GameObject:
  m_ObjectHideFlags: 0
  m_CorrespondingSourceObject: {fileID: 0}
  m_PrefabInstance: {fileID: 0}
  m_PrefabAsset: {fileID: 0}
  serializedVersion: 6
  m_Component:
  - component: {fileID: 8550555696545200624}
  m_Layer: 0
  m_Name: Bip001 L Hand
  m_TagString: Untagged
  m_Icon: {fileID: 0}
  m_NavMeshLayer: 0
  m_StaticEditorFlags: 0
  m_IsActive: 1
--- !u!4 &8550555696545200624
Transform:
  m_ObjectHideFlags: 0
  m_CorrespondingSourceObject: {fileID: 0}
  m_PrefabInstance: {fileID: 0}
  m_PrefabAsset: {fileID: 0}
  m_GameObject: {fileID: 3994252239947014614}
  serializedVersion: 2
  m_LocalRotation: {x: -0.7068252, y: -0.000000008561864, z: -0.0000000019722248, w: 0.7073882}
  m_LocalPosition: {x: -0.063585944, y: 0.0000000023841857, z: 0.000000038146972}
  m_LocalScale: {x: 1, y: 1, z: 1}
  m_ConstrainProportionsScale: 0
  m_Children:
  - {fileID: 7778689154834691667}
  m_Father: {fileID: 3407252864429330028}
  m_LocalEulerAnglesHint: {x: 0, y: 0, z: 0}
--- !u!1 &4098328168547893219
GameObject:
  m_ObjectHideFlags: 0
  m_CorrespondingSourceObject: {fileID: 0}
  m_PrefabInstance: {fileID: 0}
  m_PrefabAsset: {fileID: 0}
  serializedVersion: 6
  m_Component:
  - component: {fileID: 5164456738351035121}
  m_Layer: 0
  m_Name: Bip001 L UpperArm
  m_TagString: Untagged
  m_Icon: {fileID: 0}
  m_NavMeshLayer: 0
  m_StaticEditorFlags: 0
  m_IsActive: 1
--- !u!4 &5164456738351035121
Transform:
  m_ObjectHideFlags: 0
  m_CorrespondingSourceObject: {fileID: 0}
  m_PrefabInstance: {fileID: 0}
  m_PrefabAsset: {fileID: 0}
  m_GameObject: {fileID: 4098328168547893219}
  serializedVersion: 2
  m_LocalRotation: {x: 0.018286733, y: -0.09263493, z: -0.049680125, w: 0.99429184}
  m_LocalPosition: {x: -0.0770043, y: 0, z: 0}
  m_LocalScale: {x: 1, y: 1, z: 1}
  m_ConstrainProportionsScale: 0
  m_Children:
  - {fileID: 3407252864429330028}
  m_Father: {fileID: 7626115099525359207}
  m_LocalEulerAnglesHint: {x: 0, y: 0, z: 0}
--- !u!1 &4393216302340365677
GameObject:
  m_ObjectHideFlags: 0
  m_CorrespondingSourceObject: {fileID: 0}
  m_PrefabInstance: {fileID: 0}
  m_PrefabAsset: {fileID: 0}
  serializedVersion: 6
  m_Component:
  - component: {fileID: 3218419876591818865}
  - component: {fileID: 7541490784635159465}
  m_Layer: 0
  m_Name: sticker_backpack
  m_TagString: Untagged
  m_Icon: {fileID: 0}
  m_NavMeshLayer: 0
  m_StaticEditorFlags: 0
  m_IsActive: 1
--- !u!4 &3218419876591818865
Transform:
  m_ObjectHideFlags: 0
  m_CorrespondingSourceObject: {fileID: 0}
  m_PrefabInstance: {fileID: 0}
  m_PrefabAsset: {fileID: 0}
  m_GameObject: {fileID: 4393216302340365677}
  serializedVersion: 2
  m_LocalRotation: {x: -0.7071068, y: 0, z: -0, w: 0.7071068}
  m_LocalPosition: {x: -0, y: 0, z: 0}
  m_LocalScale: {x: 2.54, y: 2.54, z: 2.54}
  m_ConstrainProportionsScale: 0
  m_Children: []
  m_Father: {fileID: 4201680120323179013}
  m_LocalEulerAnglesHint: {x: 0, y: 0, z: 0}
--- !u!137 &7541490784635159465
SkinnedMeshRenderer:
  m_ObjectHideFlags: 0
  m_CorrespondingSourceObject: {fileID: 0}
  m_PrefabInstance: {fileID: 0}
  m_PrefabAsset: {fileID: 0}
  m_GameObject: {fileID: 4393216302340365677}
  m_Enabled: 1
  m_CastShadows: 1
  m_ReceiveShadows: 1
  m_DynamicOccludee: 1
  m_StaticShadowCaster: 0
  m_MotionVectors: 1
  m_LightProbeUsage: 1
  m_ReflectionProbeUsage: 1
  m_RayTracingMode: 0
  m_RayTraceProcedural: 0
  m_RenderingLayerMask: 1
  m_RendererPriority: 0
  m_Materials:
  - {fileID: 2100000, guid: 4d9afcd50b05c474aaba1286205961a1, type: 2}
  m_StaticBatchInfo:
    firstSubMesh: 0
    subMeshCount: 0
  m_StaticBatchRoot: {fileID: 0}
  m_ProbeAnchor: {fileID: 0}
  m_LightProbeVolumeOverride: {fileID: 0}
  m_ScaleInLightmap: 1
  m_ReceiveGI: 1
  m_PreserveUVs: 0
  m_IgnoreNormalsForChartDetection: 0
  m_ImportantGI: 0
  m_StitchLightmapSeams: 1
  m_SelectedEditorRenderState: 3
  m_MinimumChartSize: 4
  m_AutoUVMaxDistance: 0.5
  m_AutoUVMaxAngle: 89
  m_LightmapParameters: {fileID: 0}
  m_SortingLayerID: 0
  m_SortingLayer: 0
  m_SortingOrder: 0
  serializedVersion: 2
  m_Quality: 0
  m_UpdateWhenOffscreen: 0
  m_SkinnedMotionVectors: 1
  m_Mesh: {fileID: 2233672480413642788, guid: ee84f1870f092604f9e7305af1a2ce35, type: 3}
  m_Bones:
  - {fileID: 1327055055721440539}
  - {fileID: 4343486295266899006}
  m_BlendShapeWeights: []
  m_RootBone: {fileID: 4343486295266899006}
  m_AABB:
    m_Center: {x: -0.056209035, y: -0.14540914, z: -0.00016111135}
    m_Extent: {x: 0.046293326, y: 0.0045650452, z: 0.055177923}
  m_DirtyAABB: 0
--- !u!1 &4569995736748230648
GameObject:
  m_ObjectHideFlags: 0
  m_CorrespondingSourceObject: {fileID: 0}
  m_PrefabInstance: {fileID: 0}
  m_PrefabAsset: {fileID: 0}
  serializedVersion: 6
  m_Component:
  - component: {fileID: 4874807567852685899}
  m_Layer: 0
  m_Name: Bip001 R Toe0
  m_TagString: Untagged
  m_Icon: {fileID: 0}
  m_NavMeshLayer: 0
  m_StaticEditorFlags: 0
  m_IsActive: 1
--- !u!4 &4874807567852685899
Transform:
  m_ObjectHideFlags: 0
  m_CorrespondingSourceObject: {fileID: 0}
  m_PrefabInstance: {fileID: 0}
  m_PrefabAsset: {fileID: 0}
  m_GameObject: {fileID: 4569995736748230648}
  serializedVersion: 2
  m_LocalRotation: {x: -0.00000001545423, y: 0.000000015454392, z: -0.7071068, w: 0.7071068}
  m_LocalPosition: {x: -0.028150387, y: 0.03622834, z: 0.0000000047683715}
  m_LocalScale: {x: 1, y: 1, z: 1}
  m_ConstrainProportionsScale: 0
  m_Children:
  - {fileID: 7641149359507508278}
  m_Father: {fileID: 6258933512840311204}
  m_LocalEulerAnglesHint: {x: 0, y: 0, z: 0}
--- !u!1 &4690678114046690925
GameObject:
  m_ObjectHideFlags: 0
  m_CorrespondingSourceObject: {fileID: 0}
  m_PrefabInstance: {fileID: 0}
  m_PrefabAsset: {fileID: 0}
  serializedVersion: 6
  m_Component:
  - component: {fileID: 6782420737742433676}
  m_Layer: 0
  m_Name: Bip001 R Finger0Nub
  m_TagString: Untagged
  m_Icon: {fileID: 0}
  m_NavMeshLayer: 0
  m_StaticEditorFlags: 0
  m_IsActive: 1
--- !u!4 &6782420737742433676
Transform:
  m_ObjectHideFlags: 0
  m_CorrespondingSourceObject: {fileID: 0}
  m_PrefabInstance: {fileID: 0}
  m_PrefabAsset: {fileID: 0}
  m_GameObject: {fileID: 4690678114046690925}
  serializedVersion: 2
  m_LocalRotation: {x: 0.0000000037252903, y: -0.0000000018626449, z: 1, w: -0.000000007450584}
  m_LocalPosition: {x: -0.006830387, y: -0.000000038146972, z: 0}
  m_LocalScale: {x: -1, y: -1, z: -1}
  m_ConstrainProportionsScale: 0
  m_Children: []
  m_Father: {fileID: 5304700452918897779}
  m_LocalEulerAnglesHint: {x: 0, y: 0, z: 0}
--- !u!1 &5116579977796603904
GameObject:
  m_ObjectHideFlags: 0
  m_CorrespondingSourceObject: {fileID: 0}
  m_PrefabInstance: {fileID: 0}
  m_PrefabAsset: {fileID: 0}
  serializedVersion: 6
  m_Component:
  - component: {fileID: 5304700452918897779}
  m_Layer: 0
  m_Name: Bip001 R Finger0
  m_TagString: Untagged
  m_Icon: {fileID: 0}
  m_NavMeshLayer: 0
  m_StaticEditorFlags: 0
  m_IsActive: 1
--- !u!4 &5304700452918897779
Transform:
  m_ObjectHideFlags: 0
  m_CorrespondingSourceObject: {fileID: 0}
  m_PrefabInstance: {fileID: 0}
  m_PrefabAsset: {fileID: 0}
  m_GameObject: {fileID: 5116579977796603904}
  serializedVersion: 2
  m_LocalRotation: {x: 0.00039815906, y: -0.000000004656613, z: 1.8540727e-12, w: 0.99999994}
  m_LocalPosition: {x: -0.027321547, y: -0.000000038146972, z: 0}
  m_LocalScale: {x: 1, y: 1, z: 1}
  m_ConstrainProportionsScale: 0
  m_Children:
  - {fileID: 6782420737742433676}
  m_Father: {fileID: 2528488997718314482}
  m_LocalEulerAnglesHint: {x: 0, y: 0, z: 0}
--- !u!1 &5737815877819333074
GameObject:
  m_ObjectHideFlags: 0
  m_CorrespondingSourceObject: {fileID: 0}
  m_PrefabInstance: {fileID: 0}
  m_PrefabAsset: {fileID: 0}
  serializedVersion: 6
  m_Component:
  - component: {fileID: 451963770905770139}
  m_Layer: 0
  m_Name: Bip001 L Calf
  m_TagString: Untagged
  m_Icon: {fileID: 0}
  m_NavMeshLayer: 0
  m_StaticEditorFlags: 0
  m_IsActive: 1
--- !u!4 &451963770905770139
Transform:
  m_ObjectHideFlags: 0
  m_CorrespondingSourceObject: {fileID: 0}
  m_PrefabInstance: {fileID: 0}
  m_PrefabAsset: {fileID: 0}
  m_GameObject: {fileID: 5737815877819333074}
  serializedVersion: 2
  m_LocalRotation: {x: -2.3245421e-10, y: -1.3234161e-11, z: 0.056840297, w: 0.9983833}
  m_LocalPosition: {x: -0.06953507, y: 0, z: 0}
  m_LocalScale: {x: 1, y: 1, z: 1}
  m_ConstrainProportionsScale: 0
  m_Children:
  - {fileID: 6443137383512591955}
  m_Father: {fileID: 1311128845495514684}
  m_LocalEulerAnglesHint: {x: 0, y: 0, z: 0}
--- !u!1 &5865836039605818088
GameObject:
  m_ObjectHideFlags: 0
  m_CorrespondingSourceObject: {fileID: 0}
  m_PrefabInstance: {fileID: 0}
  m_PrefabAsset: {fileID: 0}
  serializedVersion: 6
  m_Component:
  - component: {fileID: 4343486295266899006}
  m_Layer: 0
  m_Name: Bip001 Spine1
  m_TagString: Untagged
  m_Icon: {fileID: 0}
  m_NavMeshLayer: 0
  m_StaticEditorFlags: 0
  m_IsActive: 1
--- !u!4 &4343486295266899006
Transform:
  m_ObjectHideFlags: 0
  m_CorrespondingSourceObject: {fileID: 0}
  m_PrefabInstance: {fileID: 0}
  m_PrefabAsset: {fileID: 0}
  m_GameObject: {fileID: 5865836039605818088}
  serializedVersion: 2
  m_LocalRotation: {x: 6.422971e-10, y: -0.000000041992784, z: 0.010050825, w: 0.9999495}
  m_LocalPosition: {x: -0.060007684, y: -0.00006621957, z: -1.8373157e-10}
  m_LocalScale: {x: 1, y: 1, z: 1}
  m_ConstrainProportionsScale: 0
  m_Children:
  - {fileID: 7626115099525359207}
  - {fileID: 3352360908212826733}
  - {fileID: 7216816398624014807}
  m_Father: {fileID: 3557628580249066877}
  m_LocalEulerAnglesHint: {x: 0, y: 0, z: 0}
--- !u!1 &6009985290736104204
GameObject:
  m_ObjectHideFlags: 0
  m_CorrespondingSourceObject: {fileID: 0}
  m_PrefabInstance: {fileID: 0}
  m_PrefabAsset: {fileID: 0}
  serializedVersion: 6
  m_Component:
  - component: {fileID: 7317003357365594892}
  m_Layer: 0
  m_Name: Bip001 L Finger0Nub
  m_TagString: Untagged
  m_Icon: {fileID: 0}
  m_NavMeshLayer: 0
  m_StaticEditorFlags: 0
  m_IsActive: 1
--- !u!4 &7317003357365594892
Transform:
  m_ObjectHideFlags: 0
  m_CorrespondingSourceObject: {fileID: 0}
  m_PrefabInstance: {fileID: 0}
  m_PrefabAsset: {fileID: 0}
  m_GameObject: {fileID: 6009985290736104204}
  serializedVersion: 2
  m_LocalRotation: {x: -3.469447e-17, y: -0.000000004656613, z: -0.000000007450581, w: 1}
  m_LocalPosition: {x: -0.006830387, y: 0, z: -0.0000000011920929}
  m_LocalScale: {x: 1, y: 1, z: 1}
  m_ConstrainProportionsScale: 0
  m_Children: []
  m_Father: {fileID: 7778689154834691667}
  m_LocalEulerAnglesHint: {x: 0, y: 0, z: 0}
--- !u!1 &6168037717893341133
GameObject:
  m_ObjectHideFlags: 0
  m_CorrespondingSourceObject: {fileID: 0}
  m_PrefabInstance: {fileID: 0}
  m_PrefabAsset: {fileID: 0}
  serializedVersion: 6
  m_Component:
  - component: {fileID: 6920821623771714859}
  m_Layer: 0
  m_Name: Bip001 R Forearm
  m_TagString: Untagged
  m_Icon: {fileID: 0}
  m_NavMeshLayer: 0
  m_StaticEditorFlags: 0
  m_IsActive: 1
--- !u!4 &6920821623771714859
Transform:
  m_ObjectHideFlags: 0
  m_CorrespondingSourceObject: {fileID: 0}
  m_PrefabInstance: {fileID: 0}
  m_PrefabAsset: {fileID: 0}
  m_GameObject: {fileID: 6168037717893341133}
  serializedVersion: 2
  m_LocalRotation: {x: -0.0000000031086136, y: -0.000000022828972, z: 0.10942179, w: 0.9939954}
  m_LocalPosition: {x: -0.06671214, y: 0.0000000023841857, z: 0}
  m_LocalScale: {x: 1, y: 1, z: 1}
  m_ConstrainProportionsScale: 0
  m_Children:
  - {fileID: 2528488997718314482}
  m_Father: {fileID: 5020194067118896734}
  m_LocalEulerAnglesHint: {x: 0, y: 0, z: 0}
--- !u!1 &6475504567402746904
GameObject:
  m_ObjectHideFlags: 0
  m_CorrespondingSourceObject: {fileID: 0}
  m_PrefabInstance: {fileID: 0}
  m_PrefabAsset: {fileID: 0}
  serializedVersion: 6
  m_Component:
  - component: {fileID: 3407252864429330028}
  m_Layer: 0
  m_Name: Bip001 L Forearm
  m_TagString: Untagged
  m_Icon: {fileID: 0}
  m_NavMeshLayer: 0
  m_StaticEditorFlags: 0
  m_IsActive: 1
--- !u!4 &3407252864429330028
Transform:
  m_ObjectHideFlags: 0
  m_CorrespondingSourceObject: {fileID: 0}
  m_PrefabInstance: {fileID: 0}
  m_PrefabAsset: {fileID: 0}
  m_GameObject: {fileID: 6475504567402746904}
  serializedVersion: 2
  m_LocalRotation: {x: 0.0000000031086145, y: 0.00000002282897, z: 0.10942177, w: 0.9939954}
  m_LocalPosition: {x: -0.06671216, y: 0, z: 0}
  m_LocalScale: {x: 1, y: 1, z: 1}
  m_ConstrainProportionsScale: 0
  m_Children:
  - {fileID: 8550555696545200624}
  m_Father: {fileID: 5164456738351035121}
  m_LocalEulerAnglesHint: {x: 0, y: 0, z: 0}
--- !u!1 &6513551884243496201
GameObject:
  m_ObjectHideFlags: 0
  m_CorrespondingSourceObject: {fileID: 0}
  m_PrefabInstance: {fileID: 0}
  m_PrefabAsset: {fileID: 0}
  serializedVersion: 6
  m_Component:
  - component: {fileID: 7452088260668943515}
  m_Layer: 0
  m_Name: Bip001 L Toe0Nub
  m_TagString: Untagged
  m_Icon: {fileID: 0}
  m_NavMeshLayer: 0
  m_StaticEditorFlags: 0
  m_IsActive: 1
--- !u!4 &7452088260668943515
Transform:
  m_ObjectHideFlags: 0
  m_CorrespondingSourceObject: {fileID: 0}
  m_PrefabInstance: {fileID: 0}
  m_PrefabAsset: {fileID: 0}
  m_GameObject: {fileID: 6513551884243496201}
  serializedVersion: 2
  m_LocalRotation: {x: -3.4543037e-15, y: -1.776357e-15, z: 1, w: -6.123234e-17}
  m_LocalPosition: {x: -0.003671789, y: 3.7252902e-11, z: 0}
  m_LocalScale: {x: -1, y: -1, z: -1}
  m_ConstrainProportionsScale: 0
  m_Children: []
  m_Father: {fileID: 6039715094399115006}
  m_LocalEulerAnglesHint: {x: 0, y: 0, z: 0}
--- !u!1 &6754059399806173652
GameObject:
  m_ObjectHideFlags: 0
  m_CorrespondingSourceObject: {fileID: 0}
  m_PrefabInstance: {fileID: 0}
  m_PrefabAsset: {fileID: 0}
  serializedVersion: 6
  m_Component:
  - component: {fileID: 2568966946853540762}
  m_Layer: 0
  m_Name: Bip001 R Thigh
  m_TagString: Untagged
  m_Icon: {fileID: 0}
  m_NavMeshLayer: 0
  m_StaticEditorFlags: 0
  m_IsActive: 1
--- !u!4 &2568966946853540762
Transform:
  m_ObjectHideFlags: 0
  m_CorrespondingSourceObject: {fileID: 0}
  m_PrefabInstance: {fileID: 0}
  m_PrefabAsset: {fileID: 0}
  m_GameObject: {fileID: 6754059399806173652}
  serializedVersion: 2
  m_LocalRotation: {x: 0.031331114, y: 0.9993961, z: 0.0030078767, w: 0.014726038}
  m_LocalPosition: {x: -0.0000000667572, y: -0.00000005841255, z: -0.04760332}
  m_LocalScale: {x: 1, y: 1, z: 1}
  m_ConstrainProportionsScale: 0
  m_Children:
  - {fileID: 5853085263055239576}
  m_Father: {fileID: 2719008943544615763}
  m_LocalEulerAnglesHint: {x: 0, y: 0, z: 0}
--- !u!1 &6875114347261042365
GameObject:
  m_ObjectHideFlags: 0
  m_CorrespondingSourceObject: {fileID: 0}
  m_PrefabInstance: {fileID: 0}
  m_PrefabAsset: {fileID: 0}
  serializedVersion: 6
  m_Component:
  - component: {fileID: 6022836497322569686}
  m_Layer: 0
  m_Name: Bip001 HeadNub
  m_TagString: Untagged
  m_Icon: {fileID: 0}
  m_NavMeshLayer: 0
  m_StaticEditorFlags: 0
  m_IsActive: 1
--- !u!4 &6022836497322569686
Transform:
  m_ObjectHideFlags: 0
  m_CorrespondingSourceObject: {fileID: 0}
  m_PrefabInstance: {fileID: 0}
  m_PrefabAsset: {fileID: 0}
  m_GameObject: {fileID: 6875114347261042365}
  serializedVersion: 2
  m_LocalRotation: {x: -1.9178148e-16, y: 2.220446e-16, z: 1.7763568e-15, w: 1}
  m_LocalPosition: {x: -0.29154265, y: 0, z: 5.684342e-16}
  m_LocalScale: {x: 1, y: 1, z: 1}
  m_ConstrainProportionsScale: 0
  m_Children: []
  m_Father: {fileID: 1327055055721440539}
  m_LocalEulerAnglesHint: {x: 0, y: 0, z: 0}
--- !u!1 &7210725966179237154
GameObject:
  m_ObjectHideFlags: 0
  m_CorrespondingSourceObject: {fileID: 0}
  m_PrefabInstance: {fileID: 0}
  m_PrefabAsset: {fileID: 0}
  serializedVersion: 6
  m_Component:
  - component: {fileID: 2719008943544615763}
  m_Layer: 0
  m_Name: Bip001 Pelvis
  m_TagString: Untagged
  m_Icon: {fileID: 0}
  m_NavMeshLayer: 0
  m_StaticEditorFlags: 0
  m_IsActive: 1
--- !u!4 &2719008943544615763
Transform:
  m_ObjectHideFlags: 0
  m_CorrespondingSourceObject: {fileID: 0}
  m_PrefabInstance: {fileID: 0}
  m_PrefabAsset: {fileID: 0}
  m_GameObject: {fileID: 7210725966179237154}
  serializedVersion: 2
  m_LocalRotation: {x: -0.5124602, y: 0.48722064, z: 0.48720852, w: 0.5124729}
  m_LocalPosition: {x: -0, y: 0, z: 0}
  m_LocalScale: {x: 1, y: 1, z: 1}
  m_ConstrainProportionsScale: 0
  m_Children:
  - {fileID: 1311128845495514684}
  - {fileID: 2568966946853540762}
  - {fileID: 3557628580249066877}
  m_Father: {fileID: 3944288702339528499}
  m_LocalEulerAnglesHint: {x: 0, y: 0, z: 0}
--- !u!1 &7271975044049058780
GameObject:
  m_ObjectHideFlags: 0
  m_CorrespondingSourceObject: {fileID: 0}
  m_PrefabInstance: {fileID: 0}
  m_PrefabAsset: {fileID: 0}
  serializedVersion: 6
  m_Component:
  - component: {fileID: 6443137383512591955}
  m_Layer: 0
  m_Name: Bip001 L Foot
  m_TagString: Untagged
  m_Icon: {fileID: 0}
  m_NavMeshLayer: 0
  m_StaticEditorFlags: 0
  m_IsActive: 1
--- !u!4 &6443137383512591955
Transform:
  m_ObjectHideFlags: 0
  m_CorrespondingSourceObject: {fileID: 0}
  m_PrefabInstance: {fileID: 0}
  m_PrefabAsset: {fileID: 0}
  m_GameObject: {fileID: 7271975044049058780}
  serializedVersion: 2
  m_LocalRotation: {x: -0.00385171, y: -0.014530301, z: -0.08808663, w: 0.9959994}
  m_LocalPosition: {x: -0.05536821, y: -0.0000000011920929, z: 0}
  m_LocalScale: {x: 1, y: 1, z: 1}
  m_ConstrainProportionsScale: 0
  m_Children:
  - {fileID: 6039715094399115006}
  m_Father: {fileID: 451963770905770139}
  m_LocalEulerAnglesHint: {x: 0, y: 0, z: 0}
--- !u!1 &7661258636135748335
GameObject:
  m_ObjectHideFlags: 0
  m_CorrespondingSourceObject: {fileID: 0}
  m_PrefabInstance: {fileID: 0}
  m_PrefabAsset: {fileID: 0}
  serializedVersion: 6
  m_Component:
  - component: {fileID: 6258933512840311204}
  m_Layer: 0
  m_Name: Bip001 R Foot
  m_TagString: Untagged
  m_Icon: {fileID: 0}
  m_NavMeshLayer: 0
  m_StaticEditorFlags: 0
  m_IsActive: 1
--- !u!4 &6258933512840311204
Transform:
  m_ObjectHideFlags: 0
  m_CorrespondingSourceObject: {fileID: 0}
  m_PrefabInstance: {fileID: 0}
  m_PrefabAsset: {fileID: 0}
  m_GameObject: {fileID: 7661258636135748335}
  serializedVersion: 2
  m_LocalRotation: {x: 0.0038516985, y: 0.014530215, z: -0.088086635, w: 0.9959994}
  m_LocalPosition: {x: -0.055368192, y: 0.0000000011920929, z: 0}
  m_LocalScale: {x: 1, y: 1, z: 1}
  m_ConstrainProportionsScale: 0
  m_Children:
  - {fileID: 4874807567852685899}
  m_Father: {fileID: 5853085263055239576}
  m_LocalEulerAnglesHint: {x: 0, y: 0, z: 0}
--- !u!1 &7899602484749152655
GameObject:
  m_ObjectHideFlags: 0
  m_CorrespondingSourceObject: {fileID: 0}
  m_PrefabInstance: {fileID: 0}
  m_PrefabAsset: {fileID: 0}
  serializedVersion: 6
  m_Component:
  - component: {fileID: 5853085263055239576}
  m_Layer: 0
  m_Name: Bip001 R Calf
  m_TagString: Untagged
  m_Icon: {fileID: 0}
  m_NavMeshLayer: 0
  m_StaticEditorFlags: 0
  m_IsActive: 1
--- !u!4 &5853085263055239576
Transform:
  m_ObjectHideFlags: 0
  m_CorrespondingSourceObject: {fileID: 0}
  m_PrefabInstance: {fileID: 0}
  m_PrefabAsset: {fileID: 0}
  m_GameObject: {fileID: 7899602484749152655}
  serializedVersion: 2
  m_LocalRotation: {x: 1.058733e-10, y: -0.0000000018596337, z: 0.056840304, w: 0.9983833}
  m_LocalPosition: {x: -0.06953507, y: -5.9604643e-10, z: 0.0000000047683715}
  m_LocalScale: {x: 1, y: 1, z: 1}
  m_ConstrainProportionsScale: 0
  m_Children:
  - {fileID: 6258933512840311204}
  m_Father: {fileID: 2568966946853540762}
  m_LocalEulerAnglesHint: {x: 0, y: 0, z: 0}
--- !u!1 &8960580138915650730
GameObject:
  m_ObjectHideFlags: 0
  m_CorrespondingSourceObject: {fileID: 0}
  m_PrefabInstance: {fileID: 0}
  m_PrefabAsset: {fileID: 0}
  serializedVersion: 6
  m_Component:
  - component: {fileID: 5020194067118896734}
  m_Layer: 0
  m_Name: Bip001 R UpperArm
  m_TagString: Untagged
  m_Icon: {fileID: 0}
  m_NavMeshLayer: 0
  m_StaticEditorFlags: 0
  m_IsActive: 1
--- !u!4 &5020194067118896734
Transform:
  m_ObjectHideFlags: 0
  m_CorrespondingSourceObject: {fileID: 0}
  m_PrefabInstance: {fileID: 0}
  m_PrefabAsset: {fileID: 0}
  m_GameObject: {fileID: 8960580138915650730}
  serializedVersion: 2
  m_LocalRotation: {x: -0.018286731, y: 0.0926349, z: -0.04968013, w: 0.99429184}
  m_LocalPosition: {x: -0.0770043, y: 0, z: 0}
  m_LocalScale: {x: 1, y: 1, z: 1}
  m_ConstrainProportionsScale: 0
  m_Children:
  - {fileID: 6920821623771714859}
  m_Father: {fileID: 7216816398624014807}
  m_LocalEulerAnglesHint: {x: 0, y: 0, z: 0}
--- !u!1 &9198078933466747978
GameObject:
  m_ObjectHideFlags: 0
  m_CorrespondingSourceObject: {fileID: 0}
  m_PrefabInstance: {fileID: 0}
  m_PrefabAsset: {fileID: 0}
  serializedVersion: 6
  m_Component:
  - component: {fileID: 1712627939524545260}
  - component: {fileID: 8332685431916140348}
  m_Layer: 0
  m_Name: BACKPACK
  m_TagString: Untagged
  m_Icon: {fileID: 0}
  m_NavMeshLayer: 0
  m_StaticEditorFlags: 0
  m_IsActive: 1
--- !u!4 &1712627939524545260
Transform:
  m_ObjectHideFlags: 0
  m_CorrespondingSourceObject: {fileID: 0}
  m_PrefabInstance: {fileID: 0}
  m_PrefabAsset: {fileID: 0}
  m_GameObject: {fileID: 9198078933466747978}
  serializedVersion: 2
  m_LocalRotation: {x: -0.7071068, y: 0, z: -0, w: 0.7071068}
  m_LocalPosition: {x: -0, y: 0, z: 0}
  m_LocalScale: {x: 2.54, y: 2.54, z: 2.54}
  m_ConstrainProportionsScale: 0
  m_Children: []
  m_Father: {fileID: 4201680120323179013}
  m_LocalEulerAnglesHint: {x: 0, y: 0, z: 0}
--- !u!137 &8332685431916140348
SkinnedMeshRenderer:
  m_ObjectHideFlags: 0
  m_CorrespondingSourceObject: {fileID: 0}
  m_PrefabInstance: {fileID: 0}
  m_PrefabAsset: {fileID: 0}
  m_GameObject: {fileID: 9198078933466747978}
  m_Enabled: 1
  m_CastShadows: 1
  m_ReceiveShadows: 1
  m_DynamicOccludee: 1
  m_StaticShadowCaster: 0
  m_MotionVectors: 1
  m_LightProbeUsage: 1
  m_ReflectionProbeUsage: 1
  m_RayTracingMode: 0
  m_RayTraceProcedural: 0
  m_RenderingLayerMask: 1
  m_RendererPriority: 0
  m_Materials:
  - {fileID: 2100000, guid: 18a1ca31e8ac1a441ac1f5a8b2e5ab3c, type: 2}
  - {fileID: 2100000, guid: dd1091560a59507478c894fe899498f1, type: 2}
  - {fileID: 2100000, guid: 891941dfa73520040985357fbf53728e, type: 2}
  m_StaticBatchInfo:
    firstSubMesh: 0
    subMeshCount: 0
  m_StaticBatchRoot: {fileID: 0}
  m_ProbeAnchor: {fileID: 0}
  m_LightProbeVolumeOverride: {fileID: 0}
  m_ScaleInLightmap: 1
  m_ReceiveGI: 1
  m_PreserveUVs: 0
  m_IgnoreNormalsForChartDetection: 0
  m_ImportantGI: 0
  m_StitchLightmapSeams: 1
  m_SelectedEditorRenderState: 3
  m_MinimumChartSize: 4
  m_AutoUVMaxDistance: 0.5
  m_AutoUVMaxAngle: 89
  m_LightmapParameters: {fileID: 0}
  m_SortingLayerID: 0
  m_SortingLayer: 0
  m_SortingOrder: 0
  serializedVersion: 2
  m_Quality: 0
  m_UpdateWhenOffscreen: 0
  m_SkinnedMotionVectors: 1
  m_Mesh: {fileID: -3532081903332195640, guid: ee84f1870f092604f9e7305af1a2ce35, type: 3}
  m_Bones:
  - {fileID: 4343486295266899006}
  - {fileID: 1327055055721440539}
  - {fileID: 5020194067118896734}
  - {fileID: 3557628580249066877}
  - {fileID: 7216816398624014807}
  - {fileID: 7626115099525359207}
  - {fileID: 5164456738351035121}
  - {fileID: 2568966946853540762}
  - {fileID: 1311128845495514684}
  m_BlendShapeWeights: []
  m_RootBone: {fileID: 3557628580249066877}
  m_AABB:
    m_Center: {x: -0.11611414, y: -0.10255756, z: 0.008434564}
    m_Extent: {x: 0.06742722, y: 0.046882607, z: 0.09271425}
  m_DirtyAABB: 0
